…
```
library(dplyr)

load("data/NHTS09_Urbsize4.rda")

HH %>%
  group_by(HHFAMINC) %>%
  summarize(n = n(), weighted_hh = sum(WTHHFIN))
```

The result is interesting as an example:

```
# A tibble: 21 x 3
   HHFAMINC     n weighted_hh
      <int> <int>       <dbl>
 1       -9     7    2978.131
 2       -8   611  401003.458
 3       -7  1608 1106251.962
 4        1   410  434079.009
 5        2   787  865340.424
 6        3  1113 1152447.130
 7        4  1263 1185127.702
 8        5  1126 1095830.388
 9        6  1606 1475247.109
10        7   949  745865.898
# ... with 11 more rows
```
…
```
Person %>%
  select(HOUSEID, PERSONID) %>%
  left_join(Trip %>%
              group_by(HOUSEID, PERSONID) %>%
              summarize(nTrips = n()),
            by = c("HOUSEID", "PERSONID")) %>%
  mutate(nTrips = ifelse(is.na(nTrips), 0, nTrips)) %>%
  group_by(HOUSEID) %>%
  summarize(nHHTrips = sum(nTrips)) %>%
  filter(nHHTrips == 0)

# A tibble: 2,281 x 2
      HOUSEID nHHTrips
        <int>    <dbl>
   1 20024451        0
   2 20091686        0
   3 20100739        0
   4 20137959        0
   5 20141787        0
   6 20171355        0
   7 20229733        0
   8 20293471        0
   9 20328618        0
  10 20346948        0
  # ... with 2,271 more rows
```
…
